…
+     avg_Planting_WS_N = mean(Planting_WS_N, na.rm = TRUE),
+     mode_Planting_WS_N = calculate_mode(Planting_WS_N)
+   )
> 
> # PLace NaN by NAs in averages
> district_summary <- district_summary %>%
+   mutate(
+     avg_Planting_WS_N = ifelse(is.nan(avg_Planting_WS_N), NA, avg_Planting_WS_N),
+     avg_Planting_WS_E = ifelse(is.nan(avg_Planting_WS_E), NA, avg_Planting_WS_E),
+     avg_Planting_SA_N = ifelse(is.nan(avg_Planting_SA_N), NA, avg_Planting_SA_N),
+     avg_Planting_SA_E = ifelse(is.nan(avg_Planting_SA_E), NA, avg_Planting_SA_E)
+   )
> 
> print(district_summary)
# A tibble: 140 × 9
   ProDis      avg_Planting_SA_E mode_Planting_SA_E avg_Planting_SA_N mode_Planting_SA_N avg_Planting_WS_E
   <chr>                   <dbl>              <dbl>             <dbl>              <dbl>             <dbl>
 1 An Giang-A…              3.69                3                3.69                3                11.9
 2 An Giang-C…              3.5                 3.5              3.5                 3.5              10.5
 3 An Giang-C…              3.5                 3.5              3.5                 3.5              10.5
 4 An Giang-C…              3.5                 3.5              3.5                 3.5              10.7
 5 An Giang-C…              4.5                 4.5              3.5                 3.5              12.5
 6 An Giang-L…              3.81                3.5              3.81                3.5              10.6
 7 An Giang-P…              4.5                 4.5              4.5                 4.5              12.5
 8 An Giang-T…              3.41                3.5              3.42                3.5              10.3
 9 An Giang-T…              3.36                3.5              3.40                3.5              10.3
10 An Giang-T…              4.5                 4.5              4.5                 4.5              12.5
# ℹ 130 more rows
# ℹ 3 more variables: mode_Planting_WS_E <dbl>, avg_Planting_WS_N <dbl>, mode_Planting_WS_N <dbl>
# ℹ Use `print(n = ...)` to see more rows
…
> 
> # Skewness by District
> skewness_summary <- Merge %>%
+   group_by(ProDis) %>%
+   summarise(
+     skewness_Planting_SA_E = skewness(Planting_SA_E, na.rm = TRUE),
+     skewness_Planting_SA_N = skewness(Planting_SA_N, na.rm = TRUE),
+     skewness_Planting_WS_E = skewness(Planting_WS_E, na.rm = TRUE),
+     skewness_Planting_WS_N = skewness(Planting_WS_N, na.rm = TRUE)
+   )
> 
> # View the skewness summary
> # NaNs indicate a similar distribution, no variation
> print(skewness_summary)
# A tibble: 140 × 5
   ProDis      skewness_Planting_SA_E skewness_Planting_SA_N skewness_Planting_WS_E skewness_Planting_WS_N
   <chr>                        <dbl>                  <dbl>                  <dbl>                  <dbl>
 1 An Giang-A…                 0.205                  0.195                   0.320                  0.320
 2 An Giang-C…               NaN                    NaN                     NaN                    NaN    
 3 An Giang-C…               NaN                    NaN                     NaN                    NaN    
 4 An Giang-C…               NaN                    NaN                       1.68                   1.68 
 5 An Giang-C…               NaN                    NaN                     NaN                    NaN    
 6 An Giang-L…                -0.0746                -0.0746                  1.49                   1.72 
 7 An Giang-P…               NaN                    NaN                     NaN                    NaN    
 8 An Giang-T…                 2.13                   2.13                    1.67                   1.07 
 9 An Giang-T…                 1.06                   1.27                    2.08                   1.86 
10 An Giang-T…               NaN                    NaN                     NaN                    NaN    
# ℹ 130 more rows
# ℹ Use `print(n = ...)` to see more rows
…
> ag_plan <- read_excel ("data/processed/ag_plan_1m5r_recode.xlsx") #load ag_plan data
> 
> # Add MATINH to the original excel file
> 
> ag_plan <- ag_plan %>%
+   mutate (package = case_when (mention_1M5R == 1 | mention_3R3G == 1 ~ 1,
+                                mention_1M5R == 0 & mention_3R3G == 0 ~ 0,
+                                TRUE ~ NA))  #recode variable
> ag_plan$MATINH <- as.character(ag_plan$MATINH)
> 
> ag_plan <- ag_plan %>%
+   left_join (province)
Error: object 'province' not found
> ag_plan
# A tibble: 108 × 11
   MATINH Province  Crop   Year mention_1M5R mention_3R3G certified seeding fertilizer pesticide package
   <chr>  <chr>     <chr> <dbl>        <dbl>        <dbl>     <dbl>   <dbl>      <dbl>     <dbl>   <dbl>
 1 89     An Giang  W-S    2023            1            1         0       1          0         1       1
 2 89     An Giang  W-S    2022            1            1         0       1          0         1       1
 3 89     An Giang  W-S    2021            1            1         0       1          0         1       1
 4 24     Bac Giang Mua    2023            0            1         0       0          1         1       1
 5 24     Bac Giang Mua    2021            0            1         0       0          1         1       1
 6 24     Bac Giang Mua    2022            0            1         0       0          1         1       1
 7 95     Bac Lieu  S-A    2023            1            0         1       0          1         1       1
 8 95     Bac Lieu  S-A    2022            1            0         1       0          1         1       1
 9 95     Bac Lieu  W-S    2021            1            0         1       0          1         1       1
10 27     Bac Ninh  W-S    2022            0            0         0       0          1         1       0
# ℹ 98 more rows
# ℹ Use `print(n = ...)` to see more rows
…
